           |00| SET R1 , rai
           |02| SET R3 , 0x02 #inicio velNormal , 0x01 vel para curva , 0x02 vel para no curva
           |04| STR [ 0x00 ] , R1
           |06| STI
      loop |08| JMP loop
       rai |0a| LOAD R2 , [ 0xF0 ]
           |0c| SET R3 , 0x01
           |0e| CMP R2 , R3
           |10| JZ cambNormal
           |12| STR [ 0xF0 ] , R3
           |14| IRET
cambNormal |16| SET R3 , 0x02
           |18| STR [ 0xF0 ] , R3
           |1a| IRET
